COVID-19 Cases Model
…
cases_sel %>% pull(cases_category) %>% table()

## .
## High  Med  Low 
## 1842  544  754

Filter Hard Hit States - Cases

cases_sel %>% group_by(state) %>% 
  summarize(high_pct = sum(cases_category == "High")/n()) %>%
  arrange(desc(high_pct))

## `summarise()` ungrouping output (override with `.groups` argument)

## # A tibble: 51 x 2
##    state high_pct
##    <fct>    <dbl>
##  1 TN       0.853
##  2 WI       0.833
##  3 MO       0.826
##  4 CA       0.810
##  5 MS       0.780
##  6 OK       0.766
##  7 KY       0.75 
##  8 ID       0.727
##  9 WA       0.718
## 10 SC       0.717
## # ... with 41 more rows
…
## .
## High  Med  Low 
##   85   24   57

Plot Map

counties <- as_tibble(map_data("county"))
counties <- counties %>% 
  rename(c(county = subregion, state = region)) %>%
  mutate(state = state.abb[match(state, tolower(state.name))]) %>%
  select(state, county, long, lat, group)
counties  

## # A tibble: 87,949 x 5
##    state county   long   lat group
##    <chr> <chr>   <dbl> <dbl> <dbl>
##  1 AL    autauga -86.5  32.3     1
##  2 AL    autauga -86.5  32.4     1
##  3 AL    autauga -86.5  32.4     1
##  4 AL    autauga -86.6  32.4     1
##  5 AL    autauga -86.6  32.4     1
##  6 AL    autauga -86.6  32.4     1
##  7 AL    autauga -86.6  32.4     1
##  8 AL    autauga -86.6  32.4     1
##  9 AL    autauga -86.6  32.4     1
## 10 AL    autauga -86.6  32.4     1
## # ... with 87,939 more rows
…
